<?xml version="1.0" encoding="UTF-8" standalone="no"?>
<svg
   xmlns:dc="http://purl.org/dc/elements/1.1/"
   xmlns:cc="http://creativecommons.org/ns#"
   xmlns:rdf="http://www.w3.org/1999/02/22-rdf-syntax-ns#"
   xmlns:svg="http://www.w3.org/2000/svg"
   xmlns="http://www.w3.org/2000/svg"
   id="svg14"
   version="1"
   height="48"
   width="48">
  <metadata
     id="metadata20">
    <rdf:RDF>
      <cc:Work
         rdf:about="">
        <dc:format>image/svg+xml</dc:format>
        <dc:type
           rdf:resource="http://purl.org/dc/dcmitype/StillImage" />
        <dc:title></dc:title>
      </cc:Work>
    </rdf:RDF>
  </metadata>
  <defs
     id="defs18" />
  <path
     id="path6"
     d="m 15.964844,4 c 1.103432,0 1.519873,1.6622095 1.65039,2.1308594 0.130145,0.4649885 0.607137,2.2004028 0.09961,5.4589846 -0.346804,1.940503 -0.546875,1.105468 -0.546875,1.105468 0,0 -0.4636,-0.947905 -0.478516,-1.658203 -0.0034,-0.175743 0,-0.32229 0,-0.439453 0.0041,-0.351487 0.0041,-0.443334 -0.115234,-0.326172 -0.156994,0.157437 -0.431806,0.612054 -0.558594,1.732422 -0.130891,1.116705 0.226563,2.547618 0.226563,2.617188 0,0.06956 -0.05661,0.08422 -0.1875,0.05859 -0.130145,-0.02929 -1.628405,-0.255833 -2.900391,-3.583985 -1.267511,-3.3281463 -1.238281,-4.3496092 -1.238281,-4.3496092 0,-2e-7 -0.04476,-0.4248082 -0.115235,-0.4394532 -0.07085,-0.014645 -0.190317,-0.058047 -0.216797,0.2128906 -0.02946,0.2709383 -0.259446,2.6605062 0.273438,5.4394528 0.533631,2.775286 1.181596,4.532939 1.789062,5.580078 0.604483,1.050801 0.664405,1.263521 0.794922,1.699219 0.130145,0.439359 0.0854,1.317706 0.15625,1.6875 0.05556,0.274599 0.09058,0.626495 0.05664,0.765625 -0.01081,0.04758 -0.03336,0.07031 -0.08594,0.04102 -0.0895,-0.05126 -0.660324,-0.622821 -0.746093,-0.707031 -0.0895,-0.08421 -0.596012,-0.534817 -1.054688,-1.230469 -0.462405,-0.691991 -0.839814,-1.17901 -1.126953,-1.431641 -0.190183,-0.172083 -0.604221,-0.523895 -0.619141,-0.384765 -0.01454,0.142792 0.111833,0.231969 0.212891,0.40039 0.100685,0.168421 0.607197,1.145172 0.898437,1.855469 0.286767,0.706636 1.237176,2.633132 1.46875,2.988281 0.230831,0.351487 0.839081,0.992049 1.357422,1.486328 0.517969,0.494279 1.283718,1.55524 1.458985,1.855469 0.17191,0.296567 0.532667,1.11796 0.5625,1.304688 0.03729,0.248972 0.07071,0.252185 -0.175781,0.197265 -0.242017,-0.05492 -1.527478,-0.497583 -1.785157,-0.607422 -0.223371,-0.09886 -0.708782,-0.290305 -0.951172,-0.396484 -0.09323,-0.04027 -0.380884,0.04057 -0.134765,0.238281 0.245746,0.197712 2.425051,1.600369 2.615234,1.728516 0.186454,0.128146 1.326343,1.091131 1.56836,1.402344 0.246491,0.311213 0.739298,1.035852 1.21289,2.009765 0.477694,0.981236 0.879104,2.142262 0.677734,4.09375 -0.182724,1.098398 -0.598915,1.67213 -0.617187,1.705078 -0.02237,0.03296 -0.06464,0.03759 -0.142578,0.01563 -0.186454,-0.0476 -0.578304,-0.253188 -0.738281,-0.330078 -0.201743,-0.09886 -0.608127,-0.355462 -0.664063,-0.326172 -0.05929,0.02929 -0.17046,0.100156 0.05664,0.371094 0.231575,0.267277 0.762932,0.8345 0.878906,0.958985 0.115601,0.128146 0.191606,0.200946 0.146484,0.285156 -0.04065,0.08421 -0.04209,0.212671 0.05859,0.326172 0.100685,0.113502 0.574565,0.652124 0.664063,0.765625 0.08577,0.113501 0.417429,0.563272 0.488281,0.75 0.07123,0.183066 0.145948,0.340377 0.175781,0.552734 0.02573,0.212357 0.09605,0.637252 0.185547,0.849609 0.08577,0.212357 0.246096,0.453646 0.402344,0.607422 C 21.063067,43.223843 22,44 22,44 h 4 c 0,0 0.936933,-0.776157 1.097656,-0.933594 0.156249,-0.153776 0.316576,-0.395065 0.402344,-0.607422 0.0895,-0.212357 0.159816,-0.637252 0.185547,-0.849609 0.02983,-0.212357 0.104556,-0.369668 0.175781,-0.552734 0.07085,-0.186728 0.402512,-0.636499 0.488281,-0.75 0.0895,-0.113501 0.563378,-0.652123 0.664063,-0.765625 0.100685,-0.113501 0.09924,-0.241961 0.05859,-0.326172 -0.04512,-0.08421 0.03088,-0.15701 0.146484,-0.285156 0.115974,-0.124485 0.647331,-0.691708 0.878906,-0.958985 0.227101,-0.270938 0.11593,-0.341803 0.05664,-0.371094 -0.05594,-0.02929 -0.46232,0.227316 -0.664063,0.326172 -0.159977,0.07689 -0.551828,0.28248 -0.738281,0.330078 -0.07794,0.02197 -0.11825,0.01733 -0.140625,-0.01563 -0.01827,-0.03295 -0.436416,-0.60668 -0.61914,-1.705078 -0.201371,-1.951488 0.20004,-3.112514 0.677734,-4.09375 0.473592,-0.973913 0.966399,-1.698552 1.21289,-2.009765 0.242019,-0.311213 1.381906,-1.274198 1.56836,-1.402344 0.190182,-0.128147 2.369488,-1.530804 2.615234,-1.728516 0.246119,-0.197711 -0.04154,-0.278555 -0.134765,-0.238281 -0.242389,0.106179 -0.727801,0.297628 -0.951172,0.396484 -0.257679,0.109839 -1.543141,0.552502 -1.785157,0.607422 -0.246491,0.05492 -0.213071,0.05171 -0.175781,-0.197265 0.02983,-0.186728 0.39059,-1.008121 0.5625,-1.304688 0.175267,-0.300229 0.941017,-1.36119 1.458985,-1.855469 0.518341,-0.494279 1.126593,-1.134841 1.357422,-1.486328 0.231576,-0.355149 1.181983,-2.281645 1.46875,-2.988281 0.29124,-0.710297 0.797752,-1.687048 0.898437,-1.855469 0.101058,-0.168421 0.227434,-0.257598 0.212891,-0.40039 -0.01492,-0.13913 -0.428958,0.212682 -0.619141,0.384765 -0.287139,0.252631 -0.664548,0.73965 -1.126953,1.431641 -0.458676,0.695652 -0.96519,1.146258 -1.054688,1.230469 -0.08577,0.08421 -0.656595,0.655772 -0.746093,0.707031 -0.05258,0.02929 -0.07512,0.0066 -0.08594,-0.04102 -0.03393,-0.13913 0.0011,-0.491026 0.05664,-0.765625 0.07085,-0.369794 0.02611,-1.248141 0.15625,-1.6875 0.130518,-0.435698 0.19044,-0.648418 0.794922,-1.699219 0.607466,-1.047139 1.255431,-2.804792 1.789062,-5.580078 0.532884,-2.7789466 0.302898,-5.1685146 0.273438,-5.4394528 -0.02648,-0.2709381 -0.145945,-0.2275359 -0.216797,-0.2128906 -0.07048,0.014645 -0.115235,0.4394531 -0.115235,0.4394532 0,0 0.02923,1.0214629 -1.238281,4.3496092 -1.271987,3.328147 -2.770246,3.554693 -2.900391,3.583985 -0.130889,0.02563 -0.1875,0.01097 -0.1875,-0.05859 0,-0.06957 0.357454,-1.500483 0.226563,-2.617188 -0.126788,-1.120366 -0.4016,-1.574985 -0.558594,-1.732422 -0.11933,-0.117162 -0.119336,-0.02531 -0.115234,0.326172 0,0.117163 0.0034,0.26371 0,0.439453 -0.01492,0.710298 -0.478516,1.658203 -0.478516,1.658203 0,1e-6 -0.200071,0.835035 -0.546875,-1.105468 C 29.777628,8.3312694 30.254621,6.5958479 30.384766,6.1308594 30.515283,5.6622095 30.931723,4 32.035156,4 Z m 3.304687,19.169922 c 0.04721,0.01441 0.07411,0.181286 0.142578,0.339844 0.08649,0.205406 0.475603,0.676774 0.626953,0.828125 0.0973,0.09369 0.175293,0.206345 0.257813,0.314453 0.212973,0.266667 0.428755,0.533069 0.626953,0.810547 0.126487,0.169369 0.220593,0.364605 0.289063,0.566406 0.270271,0.774775 0.240234,1.538798 0.240234,2.349609 0,0.126126 0.02594,0.837891 -0.06055,0.837891 -0.0901,0 -0.05037,3.84e-4 -0.115234,-0.111328 -0.0609,-0.115315 -0.425563,-0.777622 -0.5625,-0.990235 C 20.577907,27.902621 20.020435,27.110307 19.873047,26.912109 19.73575,26.713911 19.316596,26.03251 19.132812,25.628906 19.027948,25.394672 19,25.145436 19,24.900391 c 0,-0.190991 0.01489,-0.382017 0.0293,-0.558594 0.02919,-0.36036 0.06072,-0.663545 0.08594,-1.052735 0.0072,-0.111717 0.118617,-0.13355 0.154297,-0.11914 z m 9.31836,0 c 0.03567,-0.01441 0.147089,0.0074 0.154297,0.11914 0.02523,0.38919 0.05675,0.692375 0.08594,1.052735 0.01441,0.176577 0.0293,0.367603 0.0293,0.558594 0,0.245045 -0.02795,0.494281 -0.132813,0.728515 -0.183784,0.403604 -0.602936,1.085005 -0.740234,1.283203 -0.147387,0.198198 -0.70486,0.990512 -0.841797,1.203125 -0.136937,0.212613 -0.501599,0.87492 -0.5625,0.990235 -0.06486,0.111712 -0.02514,0.111328 -0.115234,0.111328 -0.08649,0 -0.06055,-0.711765 -0.06055,-0.837891 0,-0.810811 -0.03004,-1.574834 0.240234,-2.349609 0.06847,-0.201801 0.162576,-0.397037 0.289063,-0.566406 0.198198,-0.277478 0.41398,-0.54388 0.626953,-0.810547 0.08252,-0.108108 0.162468,-0.220759 0.259765,-0.314453 0.151352,-0.151351 0.540467,-0.622719 0.626954,-0.828125 0.06847,-0.158558 0.09341,-0.32543 0.140625,-0.339844 z m -6.371094,13.951172 c 0.005,-0.0041 0.01534,4.54e-4 0.03516,0.0059 0.03568,0.01441 0.06987,0.151631 0.08789,0.212891 0.01802,0.06486 0.116988,0.403913 0.142578,0.515625 0.04288,0.187387 0.165384,0.752671 0.208984,0.947265 0.05405,0.263063 0.206091,0.872028 0.212891,0.929688 0.05441,0.551351 0.187387,0.933238 0,1.091797 -0.187027,0.154955 -0.357176,-0.04889 -0.447266,-0.142578 -0.08649,-0.09369 -0.33057,-0.396872 -0.40625,-0.541016 -0.0436,-0.08288 -0.08398,-0.105494 -0.08398,-0.152344 0,-0.04324 0.05859,-0.09961 0.05859,-0.09961 0.201807,-0.356757 0.233762,-0.797318 0.226562,-1.035156 -0.0036,-0.09369 0,-0.202439 0,-0.310547 0.0033,-0.165766 0.0046,-0.323667 -0.0059,-0.410157 -0.01802,-0.144144 -0.036,-0.438932 -0.05078,-0.572265 -0.01441,-0.12973 0.01758,-0.338528 0.01758,-0.392578 0,-0.02883 -0.001,-0.04282 0.0039,-0.04687 z m 3.535156,0 c 0.005,0.0041 0.0039,0.01805 0.0039,0.04687 0,0.05405 0.03394,0.262848 0.01953,0.392578 -0.01477,0.133333 -0.03471,0.428121 -0.05273,0.572265 -0.01045,0.08649 -0.0091,0.244391 -0.0059,0.410157 0,0.108108 0.0036,0.216853 0,0.310547 -0.0072,0.237838 0.02476,0.678399 0.226562,1.035156 0,0 0.05859,0.05637 0.05859,0.09961 0,0.04685 -0.04038,0.06946 -0.08398,0.152344 -0.07568,0.144144 -0.319763,0.447322 -0.40625,0.541016 -0.09009,0.09369 -0.26024,0.297533 -0.447266,0.142578 -0.187388,-0.158559 -0.05441,-0.540446 0,-1.091797 0.0068,-0.05766 0.158837,-0.666625 0.212891,-0.929688 0.0436,-0.194594 0.166101,-0.759878 0.208984,-0.947265 0.02558,-0.111712 0.126513,-0.45076 0.144531,-0.515625 0.01802,-0.06126 0.05026,-0.198477 0.08594,-0.212891 0.01982,-0.0054 0.0302,-0.0099 0.03516,-0.0059 z"
     style="fill:#cccccc" />
  <path
     id="path12"
     d="M 15.964844 5 C 17.068276 5 17.484717 6.6622095 17.615234 7.1308594 C 17.692582 7.4072121 17.888755 8.1442091 17.931641 9.3710938 C 17.996944 7.5243422 17.71179 6.4758388 17.615234 6.1308594 C 17.555012 5.9146194 17.422539 5.4439229 17.201172 5 L 15.964844 5 z M 30.798828 5 C 30.577462 5.4439229 30.444987 5.9146194 30.384766 6.1308594 C 30.288206 6.4758388 30.003059 7.5243453 30.068359 9.3710938 C 30.111247 8.1442096 30.307415 7.4072121 30.384766 7.1308594 C 30.515281 6.6622095 30.931723 5 32.035156 5 L 30.798828 5 z M 11.525391 8.6464844 C 11.495152 9.6542295 11.518864 11.193433 11.857422 12.958984 C 12.391053 15.73427 13.039018 17.491923 13.646484 18.539062 C 14.250967 19.589863 14.310889 19.802583 14.441406 20.238281 C 14.556329 20.626252 14.54179 21.31423 14.583984 21.734375 C 14.622909 21.74817 14.644927 21.732649 14.654297 21.691406 C 14.688237 21.552276 14.653216 21.20038 14.597656 20.925781 C 14.526806 20.555987 14.571551 19.67764 14.441406 19.238281 C 14.310889 18.802583 14.250967 18.589863 13.646484 17.539062 C 13.039018 16.491923 12.391053 14.73427 11.857422 11.958984 C 11.618617 10.713637 11.54449 9.5798082 11.525391 8.6464844 z M 36.474609 8.6464844 C 36.45551 9.5798082 36.381383 10.713637 36.142578 11.958984 C 35.608947 14.73427 34.960982 16.491923 34.353516 17.539062 C 33.749034 18.589863 33.689112 18.802583 33.558594 19.238281 C 33.428454 19.67764 33.473194 20.555987 33.402344 20.925781 C 33.346804 21.20038 33.311773 21.552276 33.345703 21.691406 C 33.355082 21.732684 33.377093 21.748178 33.416016 21.734375 C 33.458211 21.31423 33.443675 20.626252 33.558594 20.238281 C 33.689112 19.802583 33.749034 19.589863 34.353516 18.539062 C 34.960982 17.491923 35.608947 15.73427 36.142578 12.958984 C 36.481136 11.193433 36.504848 9.6542295 36.474609 8.6464844 z M 16.013672 13.056641 C 15.958171 13.593925 16.008947 14.192951 16.078125 14.679688 C 16.187195 14.697055 16.242188 14.684946 16.242188 14.621094 C 16.242188 14.57272 16.07498 13.858084 16.013672 13.056641 z M 31.986328 13.056641 C 31.92502 13.858084 31.757812 14.57272 31.757812 14.621094 C 31.757812 14.684946 31.812806 14.697054 31.921875 14.679688 C 31.991053 14.192951 32.041829 13.593925 31.986328 13.056641 z M 11.097656 18.955078 C 11.05377 18.938972 11.025214 18.943733 11.021484 18.978516 C 11.006944 19.121308 11.133317 19.210485 11.234375 19.378906 C 11.33506 19.547327 11.841572 20.524078 12.132812 21.234375 C 12.41958 21.941011 13.369988 23.867507 13.601562 24.222656 C 13.832395 24.574143 14.440643 25.214705 14.958984 25.708984 C 15.476953 26.203263 16.242702 27.264224 16.417969 27.564453 C 16.472899 27.659215 16.554324 27.843709 16.630859 28.007812 C 16.672245 28.01983 16.781144 28.061064 16.804688 28.066406 C 17.051178 28.121326 17.017759 28.118113 16.980469 27.869141 C 16.950636 27.682413 16.589879 26.86102 16.417969 26.564453 C 16.242702 26.264224 15.476953 25.203263 14.958984 24.708984 C 14.440643 24.214705 13.832394 23.574143 13.601562 23.222656 C 13.369988 22.867507 12.41958 20.941011 12.132812 20.234375 C 12.047075 20.02527 11.933378 19.796228 11.826172 19.568359 C 11.766475 19.505249 11.694095 19.410325 11.640625 19.363281 C 11.497988 19.234219 11.229314 19.003396 11.097656 18.955078 z M 36.902344 18.955078 C 36.770686 19.003396 36.502012 19.234219 36.359375 19.363281 C 36.305905 19.410325 36.233525 19.505249 36.173828 19.568359 C 36.066622 19.796228 35.952925 20.02527 35.867188 20.234375 C 35.580421 20.941011 34.630012 22.867507 34.398438 23.222656 C 34.167609 23.574143 33.559357 24.214705 33.041016 24.708984 C 32.523048 25.203263 31.757298 26.264224 31.582031 26.564453 C 31.410121 26.86102 31.049361 27.682413 31.019531 27.869141 C 30.982241 28.118116 30.948822 28.121326 31.195312 28.066406 C 31.218856 28.061064 31.327755 28.019831 31.369141 28.007812 C 31.445677 27.843709 31.527101 27.659215 31.582031 27.564453 C 31.757298 27.264224 32.523048 26.203263 33.041016 25.708984 C 33.559357 25.214705 34.167609 24.574143 34.398438 24.222656 C 34.630012 23.867507 35.580421 21.941011 35.867188 21.234375 C 36.158428 20.524078 36.66494 19.547327 36.765625 19.378906 C 36.866683 19.210485 36.993059 19.121308 36.978516 18.978516 C 36.974786 18.943733 36.94623 18.938972 36.902344 18.955078 z M 19.269531 23.169922 C 19.233851 23.155512 19.122434 23.177346 19.115234 23.289062 C 19.090014 23.678252 19.058487 23.981437 19.029297 24.341797 C 19.014887 24.518374 19 24.7094 19 24.900391 C 19 25.030197 19.010239 25.16171 19.033203 25.291016 C 19.061181 24.952963 19.09123 24.659486 19.115234 24.289062 C 19.122434 24.177346 19.233851 24.155512 19.269531 24.169922 C 19.316741 24.184332 19.343641 24.351208 19.412109 24.509766 C 19.498599 24.715172 19.887712 25.18654 20.039062 25.337891 C 20.136363 25.431581 20.214355 25.544236 20.296875 25.652344 C 20.509848 25.919011 20.72563 26.185413 20.923828 26.462891 C 21.050315 26.63226 21.144421 26.827496 21.212891 27.029297 C 21.438266 27.675371 21.447986 28.319889 21.447266 28.984375 C 21.461718 28.764219 21.453125 28.458925 21.453125 28.378906 C 21.453125 27.568095 21.483162 26.804072 21.212891 26.029297 C 21.144421 25.827496 21.050315 25.63226 20.923828 25.462891 C 20.72563 25.185413 20.509848 24.919011 20.296875 24.652344 C 20.214355 24.544236 20.136363 24.431581 20.039062 24.337891 C 19.887712 24.18654 19.498599 23.715172 19.412109 23.509766 C 19.343641 23.351208 19.316741 23.184332 19.269531 23.169922 z M 28.587891 23.169922 C 28.540676 23.184336 28.515736 23.351208 28.447266 23.509766 C 28.360779 23.715172 27.971664 24.18654 27.820312 24.337891 C 27.723015 24.431585 27.643067 24.544236 27.560547 24.652344 C 27.347574 24.919011 27.131792 25.185413 26.933594 25.462891 C 26.807107 25.63226 26.713001 25.827496 26.644531 26.029297 C 26.374257 26.804072 26.404297 27.568095 26.404297 28.378906 C 26.404297 28.458925 26.395703 28.764219 26.410156 28.984375 C 26.409435 28.319889 26.419154 27.675371 26.644531 27.029297 C 26.713001 26.827496 26.807107 26.63226 26.933594 26.462891 C 27.131792 26.185413 27.347574 25.919011 27.560547 25.652344 C 27.643067 25.544236 27.723016 25.431585 27.820312 25.337891 C 27.971664 25.18654 28.360779 24.715172 28.447266 24.509766 C 28.515736 24.351208 28.540676 24.184336 28.587891 24.169922 C 28.623561 24.155512 28.73498 24.177323 28.742188 24.289062 C 28.766201 24.659486 28.796241 24.952963 28.824219 25.291016 C 28.847183 25.16171 28.857422 25.030197 28.857422 24.900391 C 28.857422 24.7094 28.842535 24.518374 28.828125 24.341797 C 28.798935 23.981437 28.767417 23.678252 28.742188 23.289062 C 28.73498 23.177323 28.623561 23.155512 28.587891 23.169922 z M 14.068359 28.0625 C 13.975129 28.02223 13.687475 28.10307 13.933594 28.300781 C 14.17934 28.498493 16.358645 29.90115 16.548828 30.029297 C 16.735282 30.157443 17.875171 31.120428 18.117188 31.431641 C 18.363678 31.742854 18.856486 32.467493 19.330078 33.441406 C 19.663432 34.126153 19.947209 34.916992 20.027344 35.984375 C 20.100553 34.377186 19.7581 33.320611 19.330078 32.441406 C 18.856486 31.467493 18.363678 30.742854 18.117188 30.431641 C 17.875171 30.120428 16.735282 29.157443 16.548828 29.029297 C 16.537457 29.021635 16.417332 28.942025 16.392578 28.925781 C 15.920766 28.775371 15.217707 28.543459 15.019531 28.458984 C 14.79616 28.360124 14.310749 28.168679 14.068359 28.0625 z M 33.931641 28.0625 C 33.689252 28.168679 33.20384 28.360128 32.980469 28.458984 C 32.782293 28.543459 32.079233 28.775371 31.607422 28.925781 C 31.582668 28.942025 31.462543 29.021635 31.451172 29.029297 C 31.264718 29.157443 30.124831 30.120428 29.882812 30.431641 C 29.636321 30.742854 29.143514 31.467493 28.669922 32.441406 C 28.2419 33.320611 27.899446 34.377186 27.972656 35.984375 C 28.052791 34.916992 28.336568 34.126153 28.669922 33.441406 C 29.143514 32.467493 29.636322 31.742854 29.882812 31.431641 C 30.124831 31.120428 31.264718 30.157443 31.451172 30.029297 C 31.641354 29.90115 33.82066 28.498493 34.066406 28.300781 C 34.312525 28.10307 34.024866 28.022226 33.931641 28.0625 z M 22.216797 37.121094 C 22.211897 37.125144 22.212891 37.139139 22.212891 37.167969 C 22.212891 37.222019 22.180902 37.430817 22.195312 37.560547 C 22.209892 37.692074 22.228319 37.978839 22.246094 38.125 C 22.248952 38.125841 22.248561 38.126021 22.251953 38.126953 C 22.287633 38.141363 22.321824 38.278584 22.339844 38.339844 C 22.357864 38.404704 22.456832 38.743757 22.482422 38.855469 C 22.525302 39.042856 22.647806 39.60814 22.691406 39.802734 C 22.745456 40.065797 22.897497 40.674762 22.904297 40.732422 C 22.90721 40.761938 22.910762 40.778104 22.914062 40.806641 C 23.079334 40.640496 22.957202 40.268525 22.904297 39.732422 C 22.897497 39.674762 22.745456 39.065797 22.691406 38.802734 C 22.647806 38.60814 22.525302 38.042856 22.482422 37.855469 C 22.456832 37.743757 22.357864 37.404704 22.339844 37.339844 C 22.321824 37.278584 22.287633 37.141363 22.251953 37.126953 C 22.232133 37.121507 22.221797 37.116994 22.216797 37.121094 z M 25.751953 37.121094 C 25.746993 37.117094 25.736617 37.121553 25.716797 37.126953 C 25.681117 37.141367 25.648879 37.278584 25.630859 37.339844 C 25.612841 37.404709 25.511908 37.743757 25.486328 37.855469 C 25.443445 38.042856 25.320944 38.60814 25.277344 38.802734 C 25.22329 39.065797 25.071253 39.674762 25.064453 39.732422 C 25.011548 40.268525 24.889415 40.640496 25.054688 40.806641 C 25.057989 40.778104 25.06154 40.761938 25.064453 40.732422 C 25.071253 40.674762 25.22329 40.065797 25.277344 39.802734 C 25.320944 39.60814 25.443445 39.042856 25.486328 38.855469 C 25.511908 38.743757 25.612841 38.404709 25.630859 38.339844 C 25.648879 38.278584 25.681117 38.141367 25.716797 38.126953 C 25.720189 38.126029 25.719797 38.125833 25.722656 38.125 C 25.740482 37.97884 25.760821 37.692075 25.775391 37.560547 C 25.789801 37.430817 25.755859 37.222019 25.755859 37.167969 C 25.755859 37.139149 25.756953 37.125194 25.751953 37.121094 z M 17.845703 38.599609 C 17.786413 38.628899 17.675244 38.699765 17.902344 38.970703 C 18.133919 39.23798 18.665276 39.805202 18.78125 39.929688 C 18.896851 40.057834 18.972856 40.130634 18.927734 40.214844 C 18.887084 40.299054 18.885648 40.427515 18.986328 40.541016 C 19.087013 40.654518 19.560893 41.19314 19.650391 41.306641 C 19.736161 41.420142 20.06782 41.869913 20.138672 42.056641 C 20.209902 42.239707 20.28462 42.397018 20.314453 42.609375 C 20.340183 42.821732 20.410503 43.246627 20.5 43.458984 C 20.57559 43.646136 20.710077 43.847613 20.847656 44 L 22 44 C 22 44 21.063075 43.223838 20.902344 43.066406 C 20.746096 42.91263 20.58577 42.671341 20.5 42.458984 C 20.410503 42.246627 20.340183 41.821732 20.314453 41.609375 C 20.28462 41.397018 20.209902 41.239707 20.138672 41.056641 C 20.06782 40.869913 19.736161 40.420142 19.650391 40.306641 C 19.560893 40.19314 19.087013 39.654518 18.986328 39.541016 C 18.885648 39.427515 18.887084 39.299054 18.927734 39.214844 C 18.946827 39.179211 18.934121 39.144026 18.916016 39.107422 C 18.760422 39.034941 18.597796 38.968091 18.509766 38.925781 C 18.308023 38.826921 17.901639 38.570319 17.845703 38.599609 z M 30.154297 38.599609 C 30.098357 38.570319 29.691977 38.826925 29.490234 38.925781 C 29.402204 38.968091 29.239578 39.03494 29.083984 39.107422 C 29.06588 39.144026 29.053174 39.179211 29.072266 39.214844 C 29.112916 39.299055 29.114357 39.427515 29.013672 39.541016 C 28.912987 39.654518 28.439109 40.19314 28.349609 40.306641 C 28.26384 40.420142 27.932178 40.869913 27.861328 41.056641 C 27.790103 41.239707 27.715377 41.397018 27.685547 41.609375 C 27.659816 41.821732 27.5895 42.246627 27.5 42.458984 C 27.414232 42.671341 27.253905 42.91263 27.097656 43.066406 C 26.936933 43.223843 26 44 26 44 L 27.152344 44 C 27.289924 43.847613 27.424412 43.646136 27.5 43.458984 C 27.5895 43.246627 27.659816 42.821732 27.685547 42.609375 C 27.715377 42.397018 27.790103 42.239707 27.861328 42.056641 C 27.932178 41.869913 28.26384 41.420142 28.349609 41.306641 C 28.439109 41.19314 28.912987 40.654518 29.013672 40.541016 C 29.114357 40.427515 29.112916 40.299055 29.072266 40.214844 C 29.027146 40.130634 29.103146 40.057834 29.21875 39.929688 C 29.334724 39.805203 29.866081 39.23798 30.097656 38.970703 C 30.324757 38.699765 30.213587 38.6289 30.154297 38.599609 z M 22.238281 39.041016 C 22.227481 39.287112 22.187174 39.602669 22.025391 39.888672 C 22.025391 39.888672 21.966797 39.945041 21.966797 39.988281 C 21.966797 40.035131 22.007181 40.057745 22.050781 40.140625 C 22.080581 40.197384 22.148818 40.269939 22.210938 40.353516 C 22.247461 40.158811 22.255726 39.97813 22.251953 39.853516 C 22.248353 39.759826 22.251953 39.651077 22.251953 39.542969 C 22.255253 39.377203 22.256594 39.219302 22.246094 39.132812 C 22.243204 39.109699 22.241156 39.070591 22.238281 39.041016 z M 25.730469 39.042969 C 25.727574 39.071801 25.725484 39.110194 25.722656 39.132812 C 25.712206 39.219302 25.713597 39.377203 25.716797 39.542969 C 25.716797 39.651077 25.720397 39.759822 25.716797 39.853516 C 25.713024 39.97813 25.721289 40.158811 25.757812 40.353516 C 25.819931 40.269939 25.888169 40.197384 25.917969 40.140625 C 25.961569 40.057741 26.001953 40.035131 26.001953 39.988281 C 26.001953 39.945041 25.943359 39.888672 25.943359 39.888672 C 25.781995 39.603402 25.741456 39.288913 25.730469 39.042969 z"
     style="opacity:0.1;fill:#ffffff" />
</svg>
